### 403785.MGPy8EG_A14N23LO_C1N2z_1000_10_LLE12k
403785   125   0.0010145100   1.  1.  0.1216823885 
### 403786.MGPy8EG_A14N23LO_C1N2z_1000_50_LLE12k
403786   125   0.0010145100   1.  1.  0.1216823885 
### 403787.MGPy8EG_A14N23LO_C1N2z_1000_200_LLE12k
403787   125   0.0010145100   1.  1.  0.1216823885 
### 403788.MGPy8EG_A14N23LO_C1N2z_1000_600_LLE12k
403788   125   0.0010145100   1.  1.  0.1216823885 
### 403789.MGPy8EG_A14N23LO_C1N2z_1000_990_LLE12k
403789   125   0.0010145100   1.  1.  0.1216823885 
### 403790.MGPy8EG_A14N23LO_C1N2z_1200_10_LLE12k
403790   125   0.0003156700   1.  1.  0.1317454937 
### 403791.MGPy8EG_A14N23LO_C1N2z_1200_50_LLE12k
403791   125   0.0003156700   1.  1.  0.1317454937 
### 403792.MGPy8EG_A14N23LO_C1N2z_1200_200_LLE12k
403792   125   0.0003156700   1.  1.  0.1317454937 
### 403793.MGPy8EG_A14N23LO_C1N2z_1200_600_LLE12k
403793   125   0.0003156700   1.  1.  0.1317454937 
### 403794.MGPy8EG_A14N23LO_C1N2z_1200_1190_LLE12k
403794   125   0.0003156700   1.  1.  0.1317454937 
### 403795.MGPy8EG_A14N23LO_C1N2z_1500_10_LLE12k
403795   125   0.0000598541   1.  1.  0.1498178070 
### 403796.MGPy8EG_A14N23LO_C1N2z_1500_50_LLE12k
403796   125   0.0000598541   1.  1.  0.1498178070 
### 403797.MGPy8EG_A14N23LO_C1N2z_1500_200_LLE12k
403797   125   0.0000598541   1.  1.  0.1498178070 
### 403798.MGPy8EG_A14N23LO_C1N2z_1500_600_LLE12k
403798   125   0.0000598541   1.  1.  0.1498178070 
### 403799.MGPy8EG_A14N23LO_C1N2z_1500_1490_LLE12k
403799   125   0.0000598541   1.  1.  0.1498178070 
### 403800.MGPy8EG_A14N23LO_C1N2z_1600_10_LLE12k
403800   125   0.0000347174   1.  1.  0.1933166078 
### 403801.MGPy8EG_A14N23LO_C1N2z_1600_50_LLE12k
403801   125   0.0000347174   1.  1.  0.1933166078 
### 403802.MGPy8EG_A14N23LO_C1N2z_1600_200_LLE12k
403802   125   0.0000347174   1.  1.  0.1933166078 
### 403803.MGPy8EG_A14N23LO_C1N2z_1600_800_LLE12k
403803   125   0.0000347174   1.  1.  0.1933166078 
### 403804.MGPy8EG_A14N23LO_C1N2z_1600_1590_LLE12k
403804   125   0.0000347174   1.  1.  0.1933166078 
### 403805.MGPy8EG_A14N23LO_C1N2z_1700_10_LLE12k
403805   125   0.0000200153   1.  1.  0.2488761098 
### 403806.MGPy8EG_A14N23LO_C1N2z_1700_50_LLE12k
403806   125   0.0000200153   1.  1.  0.2488761098 
### 403807.MGPy8EG_A14N23LO_C1N2z_1700_200_LLE12k
403807   125   0.0000200153   1.  1.  0.2488761098 
### 403808.MGPy8EG_A14N23LO_C1N2z_1700_1000_LLE12k
403808   125   0.0000200153   1.  1.  0.2488761098 
### 403809.MGPy8EG_A14N23LO_C1N2z_1700_1690_LLE12k
403809   125   0.0000200153   1.  1.  0.2488761098 
### 403810.MGPy8EG_A14N23LO_C1N2z_600_100_LLEi33
403810   125   0.0145767000   1.  1.  0.0947848278 
### 403811.MGPy8EG_A14N23LO_C1N2z_600_300_LLEi33
403811   125   0.0145767000   1.  1.  0.0947848278 
### 403812.MGPy8EG_A14N23LO_C1N2z_600_590_LLEi33
403812   125   0.0145767000   1.  1.  0.0947848278 
### 403813.MGPy8EG_A14N23LO_C1N2z_800_100_LLEi33
403813   125   0.0035411100   1.  1.  0.1099127110 
### 403814.MGPy8EG_A14N23LO_C1N2z_800_400_LLEi33
403814   125   0.0035411100   1.  1.  0.1099127110 
### 403815.MGPy8EG_A14N23LO_C1N2z_800_790_LLEi33
403815   125   0.0035411100   1.  1.  0.1099127110 
### 403816.MGPy8EG_A14N23LO_C1N2z_900_100_LLEi33
403816   125   0.0018733800   1.  1.  0.1156551260 
### 403817.MGPy8EG_A14N23LO_C1N2z_900_400_LLEi33
403817   125   0.0018733800   1.  1.  0.1156551260 
### 403818.MGPy8EG_A14N23LO_C1N2z_900_890_LLEi33
403818   125   0.0018733800   1.  1.  0.1156551260 
### 403819.MGPy8EG_A14N23LO_C1N2z_1000_100_LLEi33
403819   125   0.0010145100   1.  1.  0.1216823885 
### 403820.MGPy8EG_A14N23LO_C1N2z_1000_400_LLEi33
403820   125   0.0010145100   1.  1.  0.1216823885 
### 403821.MGPy8EG_A14N23LO_C1N2z_1000_900_LLEi33
403821   125   0.0010145100   1.  1.  0.1216823885 
### 403822.MGPy8EG_A14N23LO_C1N2z_1000_990_LLEi33
403822   125   0.0010145100   1.  1.  0.1216823885 
### 403823.MGPy8EG_A14N23LO_C1N2z_1100_100_LLEi33
403823   125   0.0005594500   1.  1.  0.1270919653 
### 403824.MGPy8EG_A14N23LO_C1N2z_1100_400_LLEi33
403824   125   0.0005594500   1.  1.  0.1270919653 
### 403825.MGPy8EG_A14N23LO_C1N2z_1100_900_LLEi33
403825   125   0.0005594500   1.  1.  0.1270919653 
### 403826.MGPy8EG_A14N23LO_C1N2z_1100_1090_LLEi33
403826   125   0.0005594500   1.  1.  0.1270919653 
### 403827.MGPy8EG_A14N23LO_C1N2h_1000_10_LLE12k
403827   125   0.0010145100   1.  1.  0.1216823885 
### 403828.MGPy8EG_A14N23LO_C1N2h_1000_50_LLE12k
403828   125   0.0010145100   1.  1.  0.1216823885 
### 403829.MGPy8EG_A14N23LO_C1N2h_1000_200_LLE12k
403829   125   0.0010145100   1.  1.  0.1216823885 
### 403830.MGPy8EG_A14N23LO_C1N2h_1000_600_LLE12k
403830   125   0.0010145100   1.  1.  0.1216823885 
### 403831.MGPy8EG_A14N23LO_C1N2h_1000_870_LLE12k
403831   125   0.0010145100   1.  1.  0.1216823885 
### 403832.MGPy8EG_A14N23LO_C1N2h_1200_10_LLE12k
403832   125   0.0003156700   1.  1.  0.1317454937 
### 403833.MGPy8EG_A14N23LO_C1N2h_1200_50_LLE12k
403833   125   0.0003156700   1.  1.  0.1317454937 
### 403834.MGPy8EG_A14N23LO_C1N2h_1200_200_LLE12k
403834   125   0.0003156700   1.  1.  0.1317454937 
### 403835.MGPy8EG_A14N23LO_C1N2h_1200_600_LLE12k
403835   125   0.0003156700   1.  1.  0.1317454937 
### 403836.MGPy8EG_A14N23LO_C1N2h_1200_1070_LLE12k
403836   125   0.0003156700   1.  1.  0.1317454937 
### 403837.MGPy8EG_A14N23LO_C1N2h_1500_10_LLE12k
403837   125   0.0000598541   1.  1.  0.1498178070 
### 403838.MGPy8EG_A14N23LO_C1N2h_1500_50_LLE12k
403838   125   0.0000598541   1.  1.  0.1498178070 
### 403839.MGPy8EG_A14N23LO_C1N2h_1500_200_LLE12k
403839   125   0.0000598541   1.  1.  0.1498178070 
### 403840.MGPy8EG_A14N23LO_C1N2h_1500_600_LLE12k
403840   125   0.0000598541   1.  1.  0.1498178070 
### 403841.MGPy8EG_A14N23LO_C1N2h_1500_1370_LLE12k
403841   125   0.0000598541   1.  1.  0.1498178070 
### 403842.MGPy8EG_A14N23LO_C1N2h_1600_10_LLE12k
403842   125   0.0000347174   1.  1.  0.1933166078 
### 403843.MGPy8EG_A14N23LO_C1N2h_1600_50_LLE12k
403843   125   0.0000347174   1.  1.  0.1933166078 
### 403844.MGPy8EG_A14N23LO_C1N2h_1600_200_LLE12k
403844   125   0.0000347174   1.  1.  0.1933166078 
### 403845.MGPy8EG_A14N23LO_C1N2h_1600_800_LLE12k
403845   125   0.0000347174   1.  1.  0.1933166078 
### 403846.MGPy8EG_A14N23LO_C1N2h_1600_1470_LLE12k
403846   125   0.0000347174   1.  1.  0.1933166078 
### 403847.MGPy8EG_A14N23LO_C1N2h_1700_10_LLE12k
403847   125   0.0000200153   1.  1.  0.2488761098 
### 403848.MGPy8EG_A14N23LO_C1N2h_1700_50_LLE12k
403848   125   0.0000200153   1.  1.  0.2488761098 
### 403849.MGPy8EG_A14N23LO_C1N2h_1700_200_LLE12k
403849   125   0.0000200153   1.  1.  0.2488761098 
### 403850.MGPy8EG_A14N23LO_C1N2h_1700_800_LLE12k
403850   125   0.0000200153   1.  1.  0.2488761098 
### 403851.MGPy8EG_A14N23LO_C1N2h_1700_1570_LLE12k
403851   125   0.0000200153   1.  1.  0.2488761098 
### 403852.MGPy8EG_A14N23LO_C1N2h_600_100_LLEi33
403852   125   0.0145767000   1.  1.  0.0947848278 
### 403853.MGPy8EG_A14N23LO_C1N2h_600_300_LLEi33
403853   125   0.0145767000   1.  1.  0.0947848278 
### 403854.MGPy8EG_A14N23LO_C1N2h_600_470_LLEi33
403854   125   0.0145767000   1.  1.  0.0947848278 
### 403855.MGPy8EG_A14N23LO_C1N2h_800_100_LLEi33
403855   125   0.0035411100   1.  1.  0.1099127110 
### 403856.MGPy8EG_A14N23LO_C1N2h_800_400_LLEi33
403856   125   0.0035411100   1.  1.  0.1099127110 
### 403857.MGPy8EG_A14N23LO_C1N2h_800_670_LLEi33
403857   125   0.0035411100   1.  1.  0.1099127110 
### 403858.MGPy8EG_A14N23LO_C1N2h_900_100_LLEi33
403858   125   0.0018733800   1.  1.  0.1156551260 
### 403859.MGPy8EG_A14N23LO_C1N2h_900_400_LLEi33
403859   125   0.0018733800   1.  1.  0.1156551260 
### 403860.MGPy8EG_A14N23LO_C1N2h_900_770_LLEi33
403860   125   0.0018733800   1.  1.  0.1156551260 
### 403861.MGPy8EG_A14N23LO_C1N2h_1000_100_LLEi33
403861   125   0.0010145100   1.  1.  0.1216823885 
### 403862.MGPy8EG_A14N23LO_C1N2h_1000_400_LLEi33
403862   125   0.0010145100   1.  1.  0.1216823885 
### 403863.MGPy8EG_A14N23LO_C1N2h_1000_870_LLEi33
403863   125   0.0010145100   1.  1.  0.1216823885 
### 403864.MGPy8EG_A14N23LO_C1N2h_1100_100_LLEi33
403864   125   0.0005594500   1.  1.  0.1270919653 
### 403865.MGPy8EG_A14N23LO_C1N2h_1100_400_LLEi33
403865   125   0.0005594500   1.  1.  0.1270919653 
### 403866.MGPy8EG_A14N23LO_C1N2h_1100_800_LLEi33
403866   125   0.0005594500   1.  1.  0.1270919653 
### 403867.MGPy8EG_A14N23LO_C1N2h_1100_970_LLEi33
403867   125   0.0005594500   1.  1.  0.1270919653 
### 403868.MGPy8EG_A14N23LO_C1N2_1000_directLLE12k
403868   125   0.0010145100   1.  1.  0.1216823885 
### 403869.MGPy8EG_A14N23LO_C1N2_1200_directLLE12k
403869   125   0.0003156700   1.  1.  0.1317454937 
### 403870.MGPy8EG_A14N23LO_C1N2_1500_directLLE12k
403870   125   0.0000598541   1.  1.  0.1498178070 
### 403871.MGPy8EG_A14N23LO_C1N2_1600_directLLE12k
403871   125   0.0000347174   1.  1.  0.1933166078 
### 403872.MGPy8EG_A14N23LO_C1N2_1700_directLLE12k
403872   125   0.0000200153   1.  1.  0.2488761098 
### 403931.MGPy8EG_A14N23LO_C1N2h_600_10_LLEi33
403931   125   0.0145767000   1.  1.  0.0947848278 
### 403932.MGPy8EG_A14N23LO_C1N2h_600_50_LLEi33
403932   125   0.0145767000   1.  1.  0.0947848278 
### 403933.MGPy8EG_A14N23LO_C1N2h_800_10_LLEi33
403933   125   0.0035411100   1.  1.  0.1099127110 
### 403934.MGPy8EG_A14N23LO_C1N2h_800_50_LLEi33
403934   125   0.0035411100   1.  1.  0.1099127110 
### 403935.MGPy8EG_A14N23LO_C1N2h_800_200_LLEi33
403935   125   0.0035411100   1.  1.  0.1099127110 
### 403936.MGPy8EG_A14N23LO_C1N2h_800_300_LLEi33
403936   125   0.0035411100   1.  1.  0.1099127110 
### 403937.MGPy8EG_A14N23LO_C1N2h_800_500_LLEi33
403937   125   0.0035411100   1.  1.  0.1099127110 
### 403938.MGPy8EG_A14N23LO_C1N2h_800_600_LLEi33
403938   125   0.0035411100   1.  1.  0.1099127110 
### 403939.MGPy8EG_A14N23LO_C1N2h_900_10_LLEi33
403939   125   0.0018733800   1.  1.  0.1156551260 
### 403940.MGPy8EG_A14N23LO_C1N2h_900_50_LLEi33
403940   125   0.0018733800   1.  1.  0.1156551260 
### 403941.MGPy8EG_A14N23LO_C1N2h_900_200_LLEi33
403941   125   0.0018733800   1.  1.  0.1156551260 
### 403942.MGPy8EG_A14N23LO_C1N2h_900_300_LLEi33
403942   125   0.0018733800   1.  1.  0.1156551260 
### 403943.MGPy8EG_A14N23LO_C1N2h_900_500_LLEi33
403943   125   0.0018733800   1.  1.  0.1156551260 
### 403944.MGPy8EG_A14N23LO_C1N2h_900_600_LLEi33
403944   125   0.0018733800   1.  1.  0.1156551260 
### 403945.MGPy8EG_A14N23LO_C1N2h_900_700_LLEi33
403945   125   0.0018733800   1.  1.  0.1156551260 
### 403946.MGPy8EG_A14N23LO_C1N2h_700_10_LLEi33
403946   125   0.0069900800   1.  1.  0.1021466135 
### 403947.MGPy8EG_A14N23LO_C1N2h_700_50_LLEi33
403947   125   0.0069900800   1.  1.  0.1021466135 
### 403948.MGPy8EG_A14N23LO_C1N2h_700_100_LLEi33
403948   125   0.0069900800   1.  1.  0.1021466135 
### 403949.MGPy8EG_A14N23LO_C1N2h_700_200_LLEi33
403949   125   0.0069900800   1.  1.  0.1021466135 
### 403950.MGPy8EG_A14N23LO_C1N2h_700_400_LLEi33
403950   125   0.0069900800   1.  1.  0.1021466135 
### 403951.MGPy8EG_A14N23LO_C1N2h_700_570_LLEi33
403951   125   0.0069900800   1.  1.  0.1021466135 
### 403952.MGPy8EG_A14N23LO_C1N2h_1000_10_LLEi33
403952   125   0.0010145100   1.  1.  0.1216823885 
### 403953.MGPy8EG_A14N23LO_C1N2h_1000_50_LLEi33
403953   125   0.0010145100   1.  1.  0.1216823885 
### 403954.MGPy8EG_A14N23LO_C1N2z_600_10_LLEi33
403954   125   0.0145767000   1.  1.  0.0947848278 
### 403955.MGPy8EG_A14N23LO_C1N2z_600_50_LLEi33
403955   125   0.0145767000   1.  1.  0.0947848278 
### 403956.MGPy8EG_A14N23LO_C1N2z_800_10_LLEi33
403956   125   0.0035411100   1.  1.  0.1099127110 
### 403957.MGPy8EG_A14N23LO_C1N2z_800_50_LLEi33
403957   125   0.0035411100   1.  1.  0.1099127110 
### 403958.MGPy8EG_A14N23LO_C1N2z_800_200_LLEi33
403958   125   0.0035411100   1.  1.  0.1099127110 
### 403959.MGPy8EG_A14N23LO_C1N2z_800_300_LLEi33
403959   125   0.0035411100   1.  1.  0.1099127110 
### 403960.MGPy8EG_A14N23LO_C1N2z_800_500_LLEi33
403960   125   0.0035411100   1.  1.  0.1099127110 
### 403961.MGPy8EG_A14N23LO_C1N2z_800_600_LLEi33
403961   125   0.0035411100   1.  1.  0.1099127110 
### 403962.MGPy8EG_A14N23LO_C1N2z_800_700_LLEi33
403962   125   0.0035411100   1.  1.  0.1099127110 
### 403963.MGPy8EG_A14N23LO_C1N2z_900_10_LLEi33
403963   125   0.0018733800   1.  1.  0.1156551260 
### 403964.MGPy8EG_A14N23LO_C1N2z_900_50_LLEi33
403964   125   0.0018733800   1.  1.  0.1156551260 
### 403965.MGPy8EG_A14N23LO_C1N2z_900_200_LLEi33
403965   125   0.0018733800   1.  1.  0.1156551260 
### 403966.MGPy8EG_A14N23LO_C1N2z_900_300_LLEi33
403966   125   0.0018733800   1.  1.  0.1156551260 
### 403967.MGPy8EG_A14N23LO_C1N2z_900_500_LLEi33
403967   125   0.0018733800   1.  1.  0.1156551260 
### 403968.MGPy8EG_A14N23LO_C1N2z_900_600_LLEi33
403968   125   0.0018733800   1.  1.  0.1156551260 
### 403969.MGPy8EG_A14N23LO_C1N2z_700_10_LLEi33
403969   125   0.0069900800   1.  1.  0.1021466135 
### 403970.MGPy8EG_A14N23LO_C1N2z_700_50_LLEi33
403970   125   0.0069900800   1.  1.  0.1021466135 
### 403971.MGPy8EG_A14N23LO_C1N2z_700_100_LLEi33
403971   125   0.0069900800   1.  1.  0.1021466135 
### 403972.MGPy8EG_A14N23LO_C1N2z_700_200_LLEi33
403972   125   0.0069900800   1.  1.  0.1021466135 
### 403973.MGPy8EG_A14N23LO_C1N2z_1000_10_LLEi33
403973   125   0.0010145100   1.  1.  0.1216823885 
### 403974.MGPy8EG_A14N23LO_C1N2z_1000_50_LLEi33
403974   125   0.0010145100   1.  1.  0.1216823885 
