### 397813.MGPy8EG_A14N23LO_LV_900_10_LLE12k 
397813 	 201	 0.0000208231 	 1. 	 1. 	 0.0470004510 
397813 	 206	 0.0000208231 	 1. 	 1. 	 0.0470004510 
397813 	 216	 0.0000208231 	 1. 	 1. 	 0.0470004510 
397813 	 204	 0.0000584193 	 1. 	 1. 	 0.0906261875 
397813 	 219	 0.0000584193 	 1. 	 1. 	 0.0906261875 
397813 	 210	 0.0000584193 	 1. 	 1. 	 0.0906261875 
397813 	 205	 0.0000187982 	 1. 	 1. 	 0.0665540271 
397813 	 220	 0.0000187982 	 1. 	 1. 	 0.0665540271 
397813 	 211	 0.0000187982 	 1. 	 1. 	 0.0665540271 
397813 	 203	 0.0000185820 	 1. 	 1. 	 0.0512340450 
397813 	 209	 0.0000185820 	 1. 	 1. 	 0.0512340450 
397813 	 218	 0.0000185820 	 1. 	 1. 	 0.0512340450 
### 397814.MGPy8EG_A14N23LO_LV_900_100_LLE12k 
397814 	 201	 0.0000208231 	 1. 	 1. 	 0.0470004510 
397814 	 206	 0.0000208231 	 1. 	 1. 	 0.0470004510 
397814 	 216	 0.0000208231 	 1. 	 1. 	 0.0470004510 
397814 	 204	 0.0000584193 	 1. 	 1. 	 0.0906261875 
397814 	 219	 0.0000584193 	 1. 	 1. 	 0.0906261875 
397814 	 210	 0.0000584193 	 1. 	 1. 	 0.0906261875 
397814 	 205	 0.0000187982 	 1. 	 1. 	 0.0665540271 
397814 	 220	 0.0000187982 	 1. 	 1. 	 0.0665540271 
397814 	 211	 0.0000187982 	 1. 	 1. 	 0.0665540271 
397814 	 203	 0.0000185820 	 1. 	 1. 	 0.0512340450 
397814 	 209	 0.0000185820 	 1. 	 1. 	 0.0512340450 
397814 	 218	 0.0000185820 	 1. 	 1. 	 0.0512340450 
### 397815.MGPy8EG_A14N23LO_LV_900_890_LLE12k 
397815 	 201	 0.0000208231 	 1. 	 1. 	 0.0470004510 
397815 	 206	 0.0000208231 	 1. 	 1. 	 0.0470004510 
397815 	 216	 0.0000208231 	 1. 	 1. 	 0.0470004510 
397815 	 204	 0.0000584193 	 1. 	 1. 	 0.0906261875 
397815 	 219	 0.0000584193 	 1. 	 1. 	 0.0906261875 
397815 	 210	 0.0000584193 	 1. 	 1. 	 0.0906261875 
397815 	 205	 0.0000187982 	 1. 	 1. 	 0.0665540271 
397815 	 220	 0.0000187982 	 1. 	 1. 	 0.0665540271 
397815 	 211	 0.0000187982 	 1. 	 1. 	 0.0665540271 
397815 	 203	 0.0000185820 	 1. 	 1. 	 0.0512340450 
397815 	 209	 0.0000185820 	 1. 	 1. 	 0.0512340450 
397815 	 218	 0.0000185820 	 1. 	 1. 	 0.0512340450 
### 397816.MGPy8EG_A14N23LO_LV_1100_10_LLE12k 
397816 	 201	 0.0000056755 	 1. 	 1. 	 0.0641614324 
397816 	 206	 0.0000056755 	 1. 	 1. 	 0.0641614324 
397816 	 216	 0.0000056755 	 1. 	 1. 	 0.0641614324 
397816 	 204	 0.0000159270 	 1. 	 1. 	 0.1233995822 
397816 	 219	 0.0000159270 	 1. 	 1. 	 0.1233995822 
397816 	 210	 0.0000159270 	 1. 	 1. 	 0.1233995822 
397816 	 205	 0.0000049193 	 1. 	 1. 	 0.0925558512 
397816 	 220	 0.0000049193 	 1. 	 1. 	 0.0925558512 
397816 	 211	 0.0000049193 	 1. 	 1. 	 0.0925558512 
397816 	 203	 0.0000049819 	 1. 	 1. 	 0.0632693718 
397816 	 209	 0.0000049819 	 1. 	 1. 	 0.0632693718 
397816 	 218	 0.0000049819 	 1. 	 1. 	 0.0632693718 
### 397817.MGPy8EG_A14N23LO_LV_1100_50_LLE12k 
397817 	 201	 0.0000056755 	 1. 	 1. 	 0.0641614324 
397817 	 206	 0.0000056755 	 1. 	 1. 	 0.0641614324 
397817 	 216	 0.0000056755 	 1. 	 1. 	 0.0641614324 
397817 	 204	 0.0000159270 	 1. 	 1. 	 0.1233995822 
397817 	 219	 0.0000159270 	 1. 	 1. 	 0.1233995822 
397817 	 210	 0.0000159270 	 1. 	 1. 	 0.1233995822 
397817 	 205	 0.0000049193 	 1. 	 1. 	 0.0925558512 
397817 	 220	 0.0000049193 	 1. 	 1. 	 0.0925558512 
397817 	 211	 0.0000049193 	 1. 	 1. 	 0.0925558512 
397817 	 203	 0.0000049819 	 1. 	 1. 	 0.0632693718 
397817 	 209	 0.0000049819 	 1. 	 1. 	 0.0632693718 
397817 	 218	 0.0000049819 	 1. 	 1. 	 0.0632693718 
### 397818.MGPy8EG_A14N23LO_LV_1100_200_LLE12k 
397818 	 201	 0.0000056755 	 1. 	 1. 	 0.0641614324 
397818 	 206	 0.0000056755 	 1. 	 1. 	 0.0641614324 
397818 	 216	 0.0000056755 	 1. 	 1. 	 0.0641614324 
397818 	 204	 0.0000159270 	 1. 	 1. 	 0.1233995822 
397818 	 219	 0.0000159270 	 1. 	 1. 	 0.1233995822 
397818 	 210	 0.0000159270 	 1. 	 1. 	 0.1233995822 
397818 	 205	 0.0000049193 	 1. 	 1. 	 0.0925558512 
397818 	 220	 0.0000049193 	 1. 	 1. 	 0.0925558512 
397818 	 211	 0.0000049193 	 1. 	 1. 	 0.0925558512 
397818 	 203	 0.0000049819 	 1. 	 1. 	 0.0632693718 
397818 	 209	 0.0000049819 	 1. 	 1. 	 0.0632693718 
397818 	 218	 0.0000049819 	 1. 	 1. 	 0.0632693718 
### 397819.MGPy8EG_A14N23LO_LV_1100_600_LLE12k 
397819 	 201	 0.0000056755 	 1. 	 1. 	 0.0641614324 
397819 	 206	 0.0000056755 	 1. 	 1. 	 0.0641614324 
397819 	 216	 0.0000056755 	 1. 	 1. 	 0.0641614324 
397819 	 204	 0.0000159270 	 1. 	 1. 	 0.1233995822 
397819 	 219	 0.0000159270 	 1. 	 1. 	 0.1233995822 
397819 	 210	 0.0000159270 	 1. 	 1. 	 0.1233995822 
397819 	 205	 0.0000049193 	 1. 	 1. 	 0.0925558512 
397819 	 220	 0.0000049193 	 1. 	 1. 	 0.0925558512 
397819 	 211	 0.0000049193 	 1. 	 1. 	 0.0925558512 
397819 	 203	 0.0000049819 	 1. 	 1. 	 0.0632693718 
397819 	 209	 0.0000049819 	 1. 	 1. 	 0.0632693718 
397819 	 218	 0.0000049819 	 1. 	 1. 	 0.0632693718 
### 397820.MGPy8EG_A14N23LO_LV_1100_1090_LLE12k 
397820 	 201	 0.0000056755 	 1. 	 1. 	 0.0641614324 
397820 	 206	 0.0000056755 	 1. 	 1. 	 0.0641614324 
397820 	 216	 0.0000056755 	 1. 	 1. 	 0.0641614324 
397820 	 204	 0.0000159270 	 1. 	 1. 	 0.1233995822 
397820 	 219	 0.0000159270 	 1. 	 1. 	 0.1233995822 
397820 	 210	 0.0000159270 	 1. 	 1. 	 0.1233995822 
397820 	 205	 0.0000049193 	 1. 	 1. 	 0.0925558512 
397820 	 220	 0.0000049193 	 1. 	 1. 	 0.0925558512 
397820 	 211	 0.0000049193 	 1. 	 1. 	 0.0925558512 
397820 	 203	 0.0000049819 	 1. 	 1. 	 0.0632693718 
397820 	 209	 0.0000049819 	 1. 	 1. 	 0.0632693718 
397820 	 218	 0.0000049819 	 1. 	 1. 	 0.0632693718 
### 397821.MGPy8EG_A14N23LO_LV_1200_10_LLE12k 
397821 	 201	 0.0000030791 	 1. 	 1. 	 0.0920064203 
397821 	 206	 0.0000030791 	 1. 	 1. 	 0.0920064203 
397821 	 216	 0.0000030791 	 1. 	 1. 	 0.0920064203 
397821 	 204	 0.0000085946 	 1. 	 1. 	 0.1383050966 
397821 	 219	 0.0000085946 	 1. 	 1. 	 0.1383050966 
397821 	 210	 0.0000085946 	 1. 	 1. 	 0.1383050966 
397821 	 205	 0.0000026179 	 1. 	 1. 	 0.1451088326 
397821 	 220	 0.0000026179 	 1. 	 1. 	 0.1451088326 
397821 	 211	 0.0000026179 	 1. 	 1. 	 0.1451088326 
397821 	 203	 0.0000026781 	 1. 	 1. 	 0.0886554610 
397821 	 209	 0.0000026781 	 1. 	 1. 	 0.0886554610 
397821 	 218	 0.0000026781 	 1. 	 1. 	 0.0886554610 
### 397822.MGPy8EG_A14N23LO_LV_1200_50_LLE12k 
397822 	 201	 0.0000030791 	 1. 	 1. 	 0.0920064203 
397822 	 206	 0.0000030791 	 1. 	 1. 	 0.0920064203 
397822 	 216	 0.0000030791 	 1. 	 1. 	 0.0920064203 
397822 	 204	 0.0000085946 	 1. 	 1. 	 0.1383050966 
397822 	 219	 0.0000085946 	 1. 	 1. 	 0.1383050966 
397822 	 210	 0.0000085946 	 1. 	 1. 	 0.1383050966 
397822 	 205	 0.0000026179 	 1. 	 1. 	 0.1451088326 
397822 	 220	 0.0000026179 	 1. 	 1. 	 0.1451088326 
397822 	 211	 0.0000026179 	 1. 	 1. 	 0.1451088326 
397822 	 203	 0.0000026781 	 1. 	 1. 	 0.0886554610 
397822 	 209	 0.0000026781 	 1. 	 1. 	 0.0886554610 
397822 	 218	 0.0000026781 	 1. 	 1. 	 0.0886554610 
### 397823.MGPy8EG_A14N23LO_LV_1200_200_LLE12k 
397823 	 201	 0.0000030791 	 1. 	 1. 	 0.0920064203 
397823 	 206	 0.0000030791 	 1. 	 1. 	 0.0920064203 
397823 	 216	 0.0000030791 	 1. 	 1. 	 0.0920064203 
397823 	 204	 0.0000085946 	 1. 	 1. 	 0.1383050966 
397823 	 219	 0.0000085946 	 1. 	 1. 	 0.1383050966 
397823 	 210	 0.0000085946 	 1. 	 1. 	 0.1383050966 
397823 	 205	 0.0000026179 	 1. 	 1. 	 0.1451088326 
397823 	 220	 0.0000026179 	 1. 	 1. 	 0.1451088326 
397823 	 211	 0.0000026179 	 1. 	 1. 	 0.1451088326 
397823 	 203	 0.0000026781 	 1. 	 1. 	 0.0886554610 
397823 	 209	 0.0000026781 	 1. 	 1. 	 0.0886554610 
397823 	 218	 0.0000026781 	 1. 	 1. 	 0.0886554610 
### 397824.MGPy8EG_A14N23LO_LV_1200_600_LLE12k 
397824 	 201	 0.0000030791 	 1. 	 1. 	 0.0920064203 
397824 	 206	 0.0000030791 	 1. 	 1. 	 0.0920064203 
397824 	 216	 0.0000030791 	 1. 	 1. 	 0.0920064203 
397824 	 204	 0.0000085946 	 1. 	 1. 	 0.1383050966 
397824 	 219	 0.0000085946 	 1. 	 1. 	 0.1383050966 
397824 	 210	 0.0000085946 	 1. 	 1. 	 0.1383050966 
397824 	 205	 0.0000026179 	 1. 	 1. 	 0.1451088326 
397824 	 220	 0.0000026179 	 1. 	 1. 	 0.1451088326 
397824 	 211	 0.0000026179 	 1. 	 1. 	 0.1451088326 
397824 	 203	 0.0000026781 	 1. 	 1. 	 0.0886554610 
397824 	 209	 0.0000026781 	 1. 	 1. 	 0.0886554610 
397824 	 218	 0.0000026781 	 1. 	 1. 	 0.0886554610 
### 397825.MGPy8EG_A14N23LO_LV_1200_1190_LLE12k 
397825 	 201	 0.0000030791 	 1. 	 1. 	 0.0920064203 
397825 	 206	 0.0000030791 	 1. 	 1. 	 0.0920064203 
397825 	 216	 0.0000030791 	 1. 	 1. 	 0.0920064203 
397825 	 204	 0.0000085946 	 1. 	 1. 	 0.1383050966 
397825 	 219	 0.0000085946 	 1. 	 1. 	 0.1383050966 
397825 	 210	 0.0000085946 	 1. 	 1. 	 0.1383050966 
397825 	 205	 0.0000026179 	 1. 	 1. 	 0.1451088326 
397825 	 220	 0.0000026179 	 1. 	 1. 	 0.1451088326 
397825 	 211	 0.0000026179 	 1. 	 1. 	 0.1451088326 
397825 	 203	 0.0000026781 	 1. 	 1. 	 0.0886554610 
397825 	 209	 0.0000026781 	 1. 	 1. 	 0.0886554610 
397825 	 218	 0.0000026781 	 1. 	 1. 	 0.0886554610 
### 397826.MGPy8EG_A14N23LO_LV_1300_10_LLE12k 
397826 	 201	 0.0000017024 	 1. 	 1. 	 0.0924683606 
397826 	 206	 0.0000017024 	 1. 	 1. 	 0.0924683606 
397826 	 216	 0.0000017024 	 1. 	 1. 	 0.0924683606 
397826 	 204	 0.0000047063 	 1. 	 1. 	 0.1544925722 
397826 	 219	 0.0000047063 	 1. 	 1. 	 0.1544925722 
397826 	 210	 0.0000047063 	 1. 	 1. 	 0.1544925722 
397826 	 205	 0.0000014046 	 1. 	 1. 	 0.1565585389 
397826 	 220	 0.0000014046 	 1. 	 1. 	 0.1565585389 
397826 	 211	 0.0000014046 	 1. 	 1. 	 0.1565585389 
397826 	 203	 0.0000014794 	 1. 	 1. 	 0.0935029352 
397826 	 209	 0.0000014794 	 1. 	 1. 	 0.0935029352 
397826 	 218	 0.0000014794 	 1. 	 1. 	 0.0935029352 
### 397827.MGPy8EG_A14N23LO_LV_1300_50_LLE12k 
397827 	 201	 0.0000017024 	 1. 	 1. 	 0.0924683606 
397827 	 206	 0.0000017024 	 1. 	 1. 	 0.0924683606 
397827 	 216	 0.0000017024 	 1. 	 1. 	 0.0924683606 
397827 	 204	 0.0000047063 	 1. 	 1. 	 0.1544925722 
397827 	 219	 0.0000047063 	 1. 	 1. 	 0.1544925722 
397827 	 210	 0.0000047063 	 1. 	 1. 	 0.1544925722 
397827 	 205	 0.0000014046 	 1. 	 1. 	 0.1565585389 
397827 	 220	 0.0000014046 	 1. 	 1. 	 0.1565585389 
397827 	 211	 0.0000014046 	 1. 	 1. 	 0.1565585389 
397827 	 203	 0.0000014794 	 1. 	 1. 	 0.0935029352 
397827 	 209	 0.0000014794 	 1. 	 1. 	 0.0935029352 
397827 	 218	 0.0000014794 	 1. 	 1. 	 0.0935029352 
### 397828.MGPy8EG_A14N23LO_LV_1300_200_LLE12k 
397828 	 201	 0.0000017024 	 1. 	 1. 	 0.0924683606 
397828 	 206	 0.0000017024 	 1. 	 1. 	 0.0924683606 
397828 	 216	 0.0000017024 	 1. 	 1. 	 0.0924683606 
397828 	 204	 0.0000047063 	 1. 	 1. 	 0.1544925722 
397828 	 219	 0.0000047063 	 1. 	 1. 	 0.1544925722 
397828 	 210	 0.0000047063 	 1. 	 1. 	 0.1544925722 
397828 	 205	 0.0000014046 	 1. 	 1. 	 0.1565585389 
397828 	 220	 0.0000014046 	 1. 	 1. 	 0.1565585389 
397828 	 211	 0.0000014046 	 1. 	 1. 	 0.1565585389 
397828 	 203	 0.0000014794 	 1. 	 1. 	 0.0935029352 
397828 	 209	 0.0000014794 	 1. 	 1. 	 0.0935029352 
397828 	 218	 0.0000014794 	 1. 	 1. 	 0.0935029352 
### 397829.MGPy8EG_A14N23LO_LV_1300_700_LLE12k 
397829 	 201	 0.0000017024 	 1. 	 1. 	 0.0924683606 
397829 	 206	 0.0000017024 	 1. 	 1. 	 0.0924683606 
397829 	 216	 0.0000017024 	 1. 	 1. 	 0.0924683606 
397829 	 204	 0.0000047063 	 1. 	 1. 	 0.1544925722 
397829 	 219	 0.0000047063 	 1. 	 1. 	 0.1544925722 
397829 	 210	 0.0000047063 	 1. 	 1. 	 0.1544925722 
397829 	 205	 0.0000014046 	 1. 	 1. 	 0.1565585389 
397829 	 220	 0.0000014046 	 1. 	 1. 	 0.1565585389 
397829 	 211	 0.0000014046 	 1. 	 1. 	 0.1565585389 
397829 	 203	 0.0000014794 	 1. 	 1. 	 0.0935029352 
397829 	 209	 0.0000014794 	 1. 	 1. 	 0.0935029352 
397829 	 218	 0.0000014794 	 1. 	 1. 	 0.0935029352 
### 397830.MGPy8EG_A14N23LO_LV_1300_1290_LLE12k 
397830 	 201	 0.0000017024 	 1. 	 1. 	 0.0924683606 
397830 	 206	 0.0000017024 	 1. 	 1. 	 0.0924683606 
397830 	 216	 0.0000017024 	 1. 	 1. 	 0.0924683606 
397830 	 204	 0.0000047063 	 1. 	 1. 	 0.1544925722 
397830 	 219	 0.0000047063 	 1. 	 1. 	 0.1544925722 
397830 	 210	 0.0000047063 	 1. 	 1. 	 0.1544925722 
397830 	 205	 0.0000014046 	 1. 	 1. 	 0.1565585389 
397830 	 220	 0.0000014046 	 1. 	 1. 	 0.1565585389 
397830 	 211	 0.0000014046 	 1. 	 1. 	 0.1565585389 
397830 	 203	 0.0000014794 	 1. 	 1. 	 0.0935029352 
397830 	 209	 0.0000014794 	 1. 	 1. 	 0.0935029352 
397830 	 218	 0.0000014794 	 1. 	 1. 	 0.0935029352 
### 397831.MGPy8EG_A14N23LO_LV_700_10_LLEi33 
397831 	 201	 0.0000883544 	 1. 	 1. 	 0.0390390530 
397831 	 206	 0.0000883544 	 1. 	 1. 	 0.0390390530 
397831 	 216	 0.0000883544 	 1. 	 1. 	 0.0390390530 
397831 	 204	 0.0002406878 	 1. 	 1. 	 0.0624052913 
397831 	 219	 0.0002406878 	 1. 	 1. 	 0.0624052913 
397831 	 210	 0.0002406878 	 1. 	 1. 	 0.0624052913 
397831 	 205	 0.0000845170 	 1. 	 1. 	 0.0561565970 
397831 	 220	 0.0000845170 	 1. 	 1. 	 0.0561565970 
397831 	 211	 0.0000845170 	 1. 	 1. 	 0.0561565970 
397831 	 203	 0.0000798608 	 1. 	 1. 	 0.0463626096 
397831 	 209	 0.0000798608 	 1. 	 1. 	 0.0463626096 
397831 	 218	 0.0000798608 	 1. 	 1. 	 0.0463626096 
### 397832.MGPy8EG_A14N23LO_LV_700_50_LLEi33 
397832 	 201	 0.0000883544 	 1. 	 1. 	 0.0390390530 
397832 	 206	 0.0000883544 	 1. 	 1. 	 0.0390390530 
397832 	 216	 0.0000883544 	 1. 	 1. 	 0.0390390530 
397832 	 204	 0.0002406878 	 1. 	 1. 	 0.0624052913 
397832 	 219	 0.0002406878 	 1. 	 1. 	 0.0624052913 
397832 	 210	 0.0002406878 	 1. 	 1. 	 0.0624052913 
397832 	 205	 0.0000845170 	 1. 	 1. 	 0.0561565970 
397832 	 220	 0.0000845170 	 1. 	 1. 	 0.0561565970 
397832 	 211	 0.0000845170 	 1. 	 1. 	 0.0561565970 
397832 	 203	 0.0000798608 	 1. 	 1. 	 0.0463626096 
397832 	 209	 0.0000798608 	 1. 	 1. 	 0.0463626096 
397832 	 218	 0.0000798608 	 1. 	 1. 	 0.0463626096 
### 397833.MGPy8EG_A14N23LO_LV_700_100_LLEi33 
397833 	 201	 0.0000883544 	 1. 	 1. 	 0.0390390530 
397833 	 206	 0.0000883544 	 1. 	 1. 	 0.0390390530 
397833 	 216	 0.0000883544 	 1. 	 1. 	 0.0390390530 
397833 	 204	 0.0002406878 	 1. 	 1. 	 0.0624052913 
397833 	 219	 0.0002406878 	 1. 	 1. 	 0.0624052913 
397833 	 210	 0.0002406878 	 1. 	 1. 	 0.0624052913 
397833 	 205	 0.0000845170 	 1. 	 1. 	 0.0561565970 
397833 	 220	 0.0000845170 	 1. 	 1. 	 0.0561565970 
397833 	 211	 0.0000845170 	 1. 	 1. 	 0.0561565970 
397833 	 203	 0.0000798608 	 1. 	 1. 	 0.0463626096 
397833 	 209	 0.0000798608 	 1. 	 1. 	 0.0463626096 
397833 	 218	 0.0000798608 	 1. 	 1. 	 0.0463626096 
### 397834.MGPy8EG_A14N23LO_LV_700_600_LLEi33 
397834 	 201	 0.0000883544 	 1. 	 1. 	 0.0390390530 
397834 	 206	 0.0000883544 	 1. 	 1. 	 0.0390390530 
397834 	 216	 0.0000883544 	 1. 	 1. 	 0.0390390530 
397834 	 204	 0.0002406878 	 1. 	 1. 	 0.0624052913 
397834 	 219	 0.0002406878 	 1. 	 1. 	 0.0624052913 
397834 	 210	 0.0002406878 	 1. 	 1. 	 0.0624052913 
397834 	 205	 0.0000845170 	 1. 	 1. 	 0.0561565970 
397834 	 220	 0.0000845170 	 1. 	 1. 	 0.0561565970 
397834 	 211	 0.0000845170 	 1. 	 1. 	 0.0561565970 
397834 	 203	 0.0000798608 	 1. 	 1. 	 0.0463626096 
397834 	 209	 0.0000798608 	 1. 	 1. 	 0.0463626096 
397834 	 218	 0.0000798608 	 1. 	 1. 	 0.0463626096 
### 397835.MGPy8EG_A14N23LO_LV_700_690_LLEi33 
397835 	 201	 0.0000883544 	 1. 	 1. 	 0.0390390530 
397835 	 206	 0.0000883544 	 1. 	 1. 	 0.0390390530 
397835 	 216	 0.0000883544 	 1. 	 1. 	 0.0390390530 
397835 	 204	 0.0002406878 	 1. 	 1. 	 0.0624052913 
397835 	 219	 0.0002406878 	 1. 	 1. 	 0.0624052913 
397835 	 210	 0.0002406878 	 1. 	 1. 	 0.0624052913 
397835 	 205	 0.0000845170 	 1. 	 1. 	 0.0561565970 
397835 	 220	 0.0000845170 	 1. 	 1. 	 0.0561565970 
397835 	 211	 0.0000845170 	 1. 	 1. 	 0.0561565970 
397835 	 203	 0.0000798608 	 1. 	 1. 	 0.0463626096 
397835 	 209	 0.0000798608 	 1. 	 1. 	 0.0463626096 
397835 	 218	 0.0000798608 	 1. 	 1. 	 0.0463626096 
### 397836.MGPy8EG_A14N23LO_LV_800_100_LLEi33 
397836 	 201	 0.0000418944 	 1. 	 1. 	 0.0424717824 
397836 	 206	 0.0000418944 	 1. 	 1. 	 0.0424717824 
397836 	 216	 0.0000418944 	 1. 	 1. 	 0.0424717824 
397836 	 204	 0.0001158218 	 1. 	 1. 	 0.0718970332 
397836 	 219	 0.0001158218 	 1. 	 1. 	 0.0718970332 
397836 	 210	 0.0001158218 	 1. 	 1. 	 0.0718970332 
397836 	 205	 0.0000389021 	 1. 	 1. 	 0.0587687576 
397836 	 220	 0.0000389021 	 1. 	 1. 	 0.0587687576 
397836 	 211	 0.0000389021 	 1. 	 1. 	 0.0587687576 
397836 	 203	 0.0000376006 	 1. 	 1. 	 0.0462461834 
397836 	 209	 0.0000376006 	 1. 	 1. 	 0.0462461834 
397836 	 218	 0.0000376006 	 1. 	 1. 	 0.0462461834 
### 397837.MGPy8EG_A14N23LO_LV_800_400_LLEi33 
397837 	 201	 0.0000418944 	 1. 	 1. 	 0.0424717824 
397837 	 206	 0.0000418944 	 1. 	 1. 	 0.0424717824 
397837 	 216	 0.0000418944 	 1. 	 1. 	 0.0424717824 
397837 	 204	 0.0001158218 	 1. 	 1. 	 0.0718970332 
397837 	 219	 0.0001158218 	 1. 	 1. 	 0.0718970332 
397837 	 210	 0.0001158218 	 1. 	 1. 	 0.0718970332 
397837 	 205	 0.0000389021 	 1. 	 1. 	 0.0587687576 
397837 	 220	 0.0000389021 	 1. 	 1. 	 0.0587687576 
397837 	 211	 0.0000389021 	 1. 	 1. 	 0.0587687576 
397837 	 203	 0.0000376006 	 1. 	 1. 	 0.0462461834 
397837 	 209	 0.0000376006 	 1. 	 1. 	 0.0462461834 
397837 	 218	 0.0000376006 	 1. 	 1. 	 0.0462461834 
### 397838.MGPy8EG_A14N23LO_LV_800_700_LLEi33 
397838 	 201	 0.0000418944 	 1. 	 1. 	 0.0424717824 
397838 	 206	 0.0000418944 	 1. 	 1. 	 0.0424717824 
397838 	 216	 0.0000418944 	 1. 	 1. 	 0.0424717824 
397838 	 204	 0.0001158218 	 1. 	 1. 	 0.0718970332 
397838 	 219	 0.0001158218 	 1. 	 1. 	 0.0718970332 
397838 	 210	 0.0001158218 	 1. 	 1. 	 0.0718970332 
397838 	 205	 0.0000389021 	 1. 	 1. 	 0.0587687576 
397838 	 220	 0.0000389021 	 1. 	 1. 	 0.0587687576 
397838 	 211	 0.0000389021 	 1. 	 1. 	 0.0587687576 
397838 	 203	 0.0000376006 	 1. 	 1. 	 0.0462461834 
397838 	 209	 0.0000376006 	 1. 	 1. 	 0.0462461834 
397838 	 218	 0.0000376006 	 1. 	 1. 	 0.0462461834 
### 397839.MGPy8EG_A14N23LO_LV_800_790_LLEi33 
397839 	 201	 0.0000418944 	 1. 	 1. 	 0.0424717824 
397839 	 206	 0.0000418944 	 1. 	 1. 	 0.0424717824 
397839 	 216	 0.0000418944 	 1. 	 1. 	 0.0424717824 
397839 	 204	 0.0001158218 	 1. 	 1. 	 0.0718970332 
397839 	 219	 0.0001158218 	 1. 	 1. 	 0.0718970332 
397839 	 210	 0.0001158218 	 1. 	 1. 	 0.0718970332 
397839 	 205	 0.0000389021 	 1. 	 1. 	 0.0587687576 
397839 	 220	 0.0000389021 	 1. 	 1. 	 0.0587687576 
397839 	 211	 0.0000389021 	 1. 	 1. 	 0.0587687576 
397839 	 203	 0.0000376006 	 1. 	 1. 	 0.0462461834 
397839 	 209	 0.0000376006 	 1. 	 1. 	 0.0462461834 
397839 	 218	 0.0000376006 	 1. 	 1. 	 0.0462461834 
### 397840.MGPy8EG_A14N23LO_LV_900_100_LLEi33 
397840 	 201	 0.0000208231 	 1. 	 1. 	 0.0470004510 
397840 	 206	 0.0000208231 	 1. 	 1. 	 0.0470004510 
397840 	 216	 0.0000208231 	 1. 	 1. 	 0.0470004510 
397840 	 204	 0.0000584193 	 1. 	 1. 	 0.0906261875 
397840 	 219	 0.0000584193 	 1. 	 1. 	 0.0906261875 
397840 	 210	 0.0000584193 	 1. 	 1. 	 0.0906261875 
397840 	 205	 0.0000187982 	 1. 	 1. 	 0.0665540271 
397840 	 220	 0.0000187982 	 1. 	 1. 	 0.0665540271 
397840 	 211	 0.0000187982 	 1. 	 1. 	 0.0665540271 
397840 	 203	 0.0000185820 	 1. 	 1. 	 0.0512340450 
397840 	 209	 0.0000185820 	 1. 	 1. 	 0.0512340450 
397840 	 218	 0.0000185820 	 1. 	 1. 	 0.0512340450 
### 397841.MGPy8EG_A14N23LO_LV_900_500_LLEi33 
397841 	 201	 0.0000208231 	 1. 	 1. 	 0.0470004510 
397841 	 206	 0.0000208231 	 1. 	 1. 	 0.0470004510 
397841 	 216	 0.0000208231 	 1. 	 1. 	 0.0470004510 
397841 	 204	 0.0000584193 	 1. 	 1. 	 0.0906261875 
397841 	 219	 0.0000584193 	 1. 	 1. 	 0.0906261875 
397841 	 210	 0.0000584193 	 1. 	 1. 	 0.0906261875 
397841 	 205	 0.0000187982 	 1. 	 1. 	 0.0665540271 
397841 	 220	 0.0000187982 	 1. 	 1. 	 0.0665540271 
397841 	 211	 0.0000187982 	 1. 	 1. 	 0.0665540271 
397841 	 203	 0.0000185820 	 1. 	 1. 	 0.0512340450 
397841 	 209	 0.0000185820 	 1. 	 1. 	 0.0512340450 
397841 	 218	 0.0000185820 	 1. 	 1. 	 0.0512340450 
### 397842.MGPy8EG_A14N23LO_LV_900_800_LLEi33 
397842 	 201	 0.0000208231 	 1. 	 1. 	 0.0470004510 
397842 	 206	 0.0000208231 	 1. 	 1. 	 0.0470004510 
397842 	 216	 0.0000208231 	 1. 	 1. 	 0.0470004510 
397842 	 204	 0.0000584193 	 1. 	 1. 	 0.0906261875 
397842 	 219	 0.0000584193 	 1. 	 1. 	 0.0906261875 
397842 	 210	 0.0000584193 	 1. 	 1. 	 0.0906261875 
397842 	 205	 0.0000187982 	 1. 	 1. 	 0.0665540271 
397842 	 220	 0.0000187982 	 1. 	 1. 	 0.0665540271 
397842 	 211	 0.0000187982 	 1. 	 1. 	 0.0665540271 
397842 	 203	 0.0000185820 	 1. 	 1. 	 0.0512340450 
397842 	 209	 0.0000185820 	 1. 	 1. 	 0.0512340450 
397842 	 218	 0.0000185820 	 1. 	 1. 	 0.0512340450 
### 397843.MGPy8EG_A14N23LO_LV_900_890_LLEi33 
397843 	 201	 0.0000208231 	 1. 	 1. 	 0.0470004510 
397843 	 206	 0.0000208231 	 1. 	 1. 	 0.0470004510 
397843 	 216	 0.0000208231 	 1. 	 1. 	 0.0470004510 
397843 	 204	 0.0000584193 	 1. 	 1. 	 0.0906261875 
397843 	 219	 0.0000584193 	 1. 	 1. 	 0.0906261875 
397843 	 210	 0.0000584193 	 1. 	 1. 	 0.0906261875 
397843 	 205	 0.0000187982 	 1. 	 1. 	 0.0665540271 
397843 	 220	 0.0000187982 	 1. 	 1. 	 0.0665540271 
397843 	 211	 0.0000187982 	 1. 	 1. 	 0.0665540271 
397843 	 203	 0.0000185820 	 1. 	 1. 	 0.0512340450 
397843 	 209	 0.0000185820 	 1. 	 1. 	 0.0512340450 
397843 	 218	 0.0000185820 	 1. 	 1. 	 0.0512340450 
### 397844.MGPy8EG_A14N23LO_LV_1000_100_LLEi33 
397844 	 201	 0.0000107156 	 1. 	 1. 	 0.0491576147 
397844 	 206	 0.0000107156 	 1. 	 1. 	 0.0491576147 
397844 	 216	 0.0000107156 	 1. 	 1. 	 0.0491576147 
397844 	 204	 0.0000300894 	 1. 	 1. 	 0.1013766284 
397844 	 219	 0.0000300894 	 1. 	 1. 	 0.1013766284 
397844 	 210	 0.0000300894 	 1. 	 1. 	 0.1013766284 
397844 	 205	 0.0000094699 	 1. 	 1. 	 0.0745919309 
397844 	 220	 0.0000094699 	 1. 	 1. 	 0.0745919309 
397844 	 211	 0.0000094699 	 1. 	 1. 	 0.0745919309 
397844 	 203	 0.0000094773 	 1. 	 1. 	 0.0574931783 
397844 	 209	 0.0000094773 	 1. 	 1. 	 0.0574931783 
397844 	 218	 0.0000094773 	 1. 	 1. 	 0.0574931783 
### 397845.MGPy8EG_A14N23LO_LV_1000_500_LLEi33 
397845 	 201	 0.0000107156 	 1. 	 1. 	 0.0491576147 
397845 	 206	 0.0000107156 	 1. 	 1. 	 0.0491576147 
397845 	 216	 0.0000107156 	 1. 	 1. 	 0.0491576147 
397845 	 204	 0.0000300894 	 1. 	 1. 	 0.1013766284 
397845 	 219	 0.0000300894 	 1. 	 1. 	 0.1013766284 
397845 	 210	 0.0000300894 	 1. 	 1. 	 0.1013766284 
397845 	 205	 0.0000094699 	 1. 	 1. 	 0.0745919309 
397845 	 220	 0.0000094699 	 1. 	 1. 	 0.0745919309 
397845 	 211	 0.0000094699 	 1. 	 1. 	 0.0745919309 
397845 	 203	 0.0000094773 	 1. 	 1. 	 0.0574931783 
397845 	 209	 0.0000094773 	 1. 	 1. 	 0.0574931783 
397845 	 218	 0.0000094773 	 1. 	 1. 	 0.0574931783 
### 397846.MGPy8EG_A14N23LO_LV_1000_900_LLEi33 
397846 	 201	 0.0000107156 	 1. 	 1. 	 0.0491576147 
397846 	 206	 0.0000107156 	 1. 	 1. 	 0.0491576147 
397846 	 216	 0.0000107156 	 1. 	 1. 	 0.0491576147 
397846 	 204	 0.0000300894 	 1. 	 1. 	 0.1013766284 
397846 	 219	 0.0000300894 	 1. 	 1. 	 0.1013766284 
397846 	 210	 0.0000300894 	 1. 	 1. 	 0.1013766284 
397846 	 205	 0.0000094699 	 1. 	 1. 	 0.0745919309 
397846 	 220	 0.0000094699 	 1. 	 1. 	 0.0745919309 
397846 	 211	 0.0000094699 	 1. 	 1. 	 0.0745919309 
397846 	 203	 0.0000094773 	 1. 	 1. 	 0.0574931783 
397846 	 209	 0.0000094773 	 1. 	 1. 	 0.0574931783 
397846 	 218	 0.0000094773 	 1. 	 1. 	 0.0574931783 
### 397847.MGPy8EG_A14N23LO_LV_1000_990_LLEi33 
397847 	 201	 0.0000107156 	 1. 	 1. 	 0.0491576147 
397847 	 206	 0.0000107156 	 1. 	 1. 	 0.0491576147 
397847 	 216	 0.0000107156 	 1. 	 1. 	 0.0491576147 
397847 	 204	 0.0000300894 	 1. 	 1. 	 0.1013766284 
397847 	 219	 0.0000300894 	 1. 	 1. 	 0.1013766284 
397847 	 210	 0.0000300894 	 1. 	 1. 	 0.1013766284 
397847 	 205	 0.0000094699 	 1. 	 1. 	 0.0745919309 
397847 	 220	 0.0000094699 	 1. 	 1. 	 0.0745919309 
397847 	 211	 0.0000094699 	 1. 	 1. 	 0.0745919309 
397847 	 203	 0.0000094773 	 1. 	 1. 	 0.0574931783 
397847 	 209	 0.0000094773 	 1. 	 1. 	 0.0574931783 
397847 	 218	 0.0000094773 	 1. 	 1. 	 0.0574931783 
### 449829.MGPy8EG_A14N23LO_LV_700_directLLE12k 
449829 	 201	 0.0000883544 	 1. 	 1. 	 0.0390390530 
449829 	 206	 0.0000883544 	 1. 	 1. 	 0.0390390530 
449829 	 216	 0.0000883544 	 1. 	 1. 	 0.0390390530 
449829 	 204	 0.0002406878 	 1. 	 1. 	 0.0624052913 
449829 	 219	 0.0002406878 	 1. 	 1. 	 0.0624052913 
449829 	 210	 0.0002406878 	 1. 	 1. 	 0.0624052913 
449829 	 205	 0.0000845170 	 1. 	 1. 	 0.0561565970 
449829 	 220	 0.0000845170 	 1. 	 1. 	 0.0561565970 
449829 	 211	 0.0000845170 	 1. 	 1. 	 0.0561565970 
449829 	 203	 0.0000798608 	 1. 	 1. 	 0.0463626096 
449829 	 209	 0.0000798608 	 1. 	 1. 	 0.0463626096 
449829 	 218	 0.0000798608 	 1. 	 1. 	 0.0463626096 
### 449830.MGPy8EG_A14N23LO_LV_900_directLLE12k 
449830 	 201	 0.0000208231 	 1. 	 1. 	 0.0470004510 
449830 	 206	 0.0000208231 	 1. 	 1. 	 0.0470004510 
449830 	 216	 0.0000208231 	 1. 	 1. 	 0.0470004510 
449830 	 204	 0.0000584193 	 1. 	 1. 	 0.0906261875 
449830 	 219	 0.0000584193 	 1. 	 1. 	 0.0906261875 
449830 	 210	 0.0000584193 	 1. 	 1. 	 0.0906261875 
449830 	 205	 0.0000187982 	 1. 	 1. 	 0.0665540271 
449830 	 220	 0.0000187982 	 1. 	 1. 	 0.0665540271 
449830 	 211	 0.0000187982 	 1. 	 1. 	 0.0665540271 
449830 	 203	 0.0000185820 	 1. 	 1. 	 0.0512340450 
449830 	 209	 0.0000185820 	 1. 	 1. 	 0.0512340450 
449830 	 218	 0.0000185820 	 1. 	 1. 	 0.0512340450 
### 449831.MGPy8EG_A14N23LO_LV_600_directLLEi33 
449831 	 201	 0.0001980417 	 1. 	 1. 	 0.0367180393 
449831 	 206	 0.0001980417 	 1. 	 1. 	 0.0367180393 
449831 	 216	 0.0001980417 	 1. 	 1. 	 0.0367180393 
449831 	 204	 0.0005293893 	 1. 	 1. 	 0.0500537599 
449831 	 219	 0.0005293893 	 1. 	 1. 	 0.0500537599 
449831 	 210	 0.0005293893 	 1. 	 1. 	 0.0500537599 
449831 	 205	 0.0001959009 	 1. 	 1. 	 0.0464072493 
449831 	 220	 0.0001959009 	 1. 	 1. 	 0.0464072493 
449831 	 211	 0.0001959009 	 1. 	 1. 	 0.0464072493 
449831 	 203	 0.0001802856 	 1. 	 1. 	 0.0419440632 
449831 	 209	 0.0001802856 	 1. 	 1. 	 0.0419440632 
449831 	 218	 0.0001802856 	 1. 	 1. 	 0.0419440632 
### 449852.MGPy8EG_A14N23LO_LV_1000_50_LLE12k 
449852 	 201	 0.0000107156 	 1. 	 1. 	 0.0491576147 
449852 	 206	 0.0000107156 	 1. 	 1. 	 0.0491576147 
449852 	 216	 0.0000107156 	 1. 	 1. 	 0.0491576147 
449852 	 204	 0.0000300894 	 1. 	 1. 	 0.1013766284 
449852 	 219	 0.0000300894 	 1. 	 1. 	 0.1013766284 
449852 	 210	 0.0000300894 	 1. 	 1. 	 0.1013766284 
449852 	 205	 0.0000094699 	 1. 	 1. 	 0.0745919309 
449852 	 220	 0.0000094699 	 1. 	 1. 	 0.0745919309 
449852 	 211	 0.0000094699 	 1. 	 1. 	 0.0745919309 
449852 	 203	 0.0000094773 	 1. 	 1. 	 0.0574931783 
449852 	 209	 0.0000094773 	 1. 	 1. 	 0.0574931783 
449852 	 218	 0.0000094773 	 1. 	 1. 	 0.0574931783 
### 449853.MGPy8EG_A14N23LO_LV_1000_100_LLE12k 
449853 	 201	 0.0000107156 	 1. 	 1. 	 0.0491576147 
449853 	 206	 0.0000107156 	 1. 	 1. 	 0.0491576147 
449853 	 216	 0.0000107156 	 1. 	 1. 	 0.0491576147 
449853 	 204	 0.0000300894 	 1. 	 1. 	 0.1013766284 
449853 	 219	 0.0000300894 	 1. 	 1. 	 0.1013766284 
449853 	 210	 0.0000300894 	 1. 	 1. 	 0.1013766284 
449853 	 205	 0.0000094699 	 1. 	 1. 	 0.0745919309 
449853 	 220	 0.0000094699 	 1. 	 1. 	 0.0745919309 
449853 	 211	 0.0000094699 	 1. 	 1. 	 0.0745919309 
449853 	 203	 0.0000094773 	 1. 	 1. 	 0.0574931783 
449853 	 209	 0.0000094773 	 1. 	 1. 	 0.0574931783 
449853 	 218	 0.0000094773 	 1. 	 1. 	 0.0574931783 
### 449854.MGPy8EG_A14N23LO_LV_1000_200_LLE12k 
449854 	 201	 0.0000107156 	 1. 	 1. 	 0.0491576147 
449854 	 206	 0.0000107156 	 1. 	 1. 	 0.0491576147 
449854 	 216	 0.0000107156 	 1. 	 1. 	 0.0491576147 
449854 	 204	 0.0000300894 	 1. 	 1. 	 0.1013766284 
449854 	 219	 0.0000300894 	 1. 	 1. 	 0.1013766284 
449854 	 210	 0.0000300894 	 1. 	 1. 	 0.1013766284 
449854 	 205	 0.0000094699 	 1. 	 1. 	 0.0745919309 
449854 	 220	 0.0000094699 	 1. 	 1. 	 0.0745919309 
449854 	 211	 0.0000094699 	 1. 	 1. 	 0.0745919309 
449854 	 203	 0.0000094773 	 1. 	 1. 	 0.0574931783 
449854 	 209	 0.0000094773 	 1. 	 1. 	 0.0574931783 
449854 	 218	 0.0000094773 	 1. 	 1. 	 0.0574931783 
### 449855.MGPy8EG_A14N23LO_LV_1000_400_LLE12k 
449855 	 201	 0.0000107156 	 1. 	 1. 	 0.0491576147 
449855 	 206	 0.0000107156 	 1. 	 1. 	 0.0491576147 
449855 	 216	 0.0000107156 	 1. 	 1. 	 0.0491576147 
449855 	 204	 0.0000300894 	 1. 	 1. 	 0.1013766284 
449855 	 219	 0.0000300894 	 1. 	 1. 	 0.1013766284 
449855 	 210	 0.0000300894 	 1. 	 1. 	 0.1013766284 
449855 	 205	 0.0000094699 	 1. 	 1. 	 0.0745919309 
449855 	 220	 0.0000094699 	 1. 	 1. 	 0.0745919309 
449855 	 211	 0.0000094699 	 1. 	 1. 	 0.0745919309 
449855 	 203	 0.0000094773 	 1. 	 1. 	 0.0574931783 
449855 	 209	 0.0000094773 	 1. 	 1. 	 0.0574931783 
449855 	 218	 0.0000094773 	 1. 	 1. 	 0.0574931783 
### 449856.MGPy8EG_A14N23LO_LV_1000_600_LLE12k 
449856 	 201	 0.0000107156 	 1. 	 1. 	 0.0491576147 
449856 	 206	 0.0000107156 	 1. 	 1. 	 0.0491576147 
449856 	 216	 0.0000107156 	 1. 	 1. 	 0.0491576147 
449856 	 204	 0.0000300894 	 1. 	 1. 	 0.1013766284 
449856 	 219	 0.0000300894 	 1. 	 1. 	 0.1013766284 
449856 	 210	 0.0000300894 	 1. 	 1. 	 0.1013766284 
449856 	 205	 0.0000094699 	 1. 	 1. 	 0.0745919309 
449856 	 220	 0.0000094699 	 1. 	 1. 	 0.0745919309 
449856 	 211	 0.0000094699 	 1. 	 1. 	 0.0745919309 
449856 	 203	 0.0000094773 	 1. 	 1. 	 0.0574931783 
449856 	 209	 0.0000094773 	 1. 	 1. 	 0.0574931783 
449856 	 218	 0.0000094773 	 1. 	 1. 	 0.0574931783 
### 449857.MGPy8EG_A14N23LO_LV_1000_800_LLE12k 
449857 	 201	 0.0000107156 	 1. 	 1. 	 0.0491576147 
449857 	 206	 0.0000107156 	 1. 	 1. 	 0.0491576147 
449857 	 216	 0.0000107156 	 1. 	 1. 	 0.0491576147 
449857 	 204	 0.0000300894 	 1. 	 1. 	 0.1013766284 
449857 	 219	 0.0000300894 	 1. 	 1. 	 0.1013766284 
449857 	 210	 0.0000300894 	 1. 	 1. 	 0.1013766284 
449857 	 205	 0.0000094699 	 1. 	 1. 	 0.0745919309 
449857 	 220	 0.0000094699 	 1. 	 1. 	 0.0745919309 
449857 	 211	 0.0000094699 	 1. 	 1. 	 0.0745919309 
449857 	 203	 0.0000094773 	 1. 	 1. 	 0.0574931783 
449857 	 209	 0.0000094773 	 1. 	 1. 	 0.0574931783 
449857 	 218	 0.0000094773 	 1. 	 1. 	 0.0574931783 
### 449858.MGPy8EG_A14N23LO_LV_1000_990_LLE12k 
449858 	 201	 0.0000107156 	 1. 	 1. 	 0.0491576147 
449858 	 206	 0.0000107156 	 1. 	 1. 	 0.0491576147 
449858 	 216	 0.0000107156 	 1. 	 1. 	 0.0491576147 
449858 	 204	 0.0000300894 	 1. 	 1. 	 0.1013766284 
449858 	 219	 0.0000300894 	 1. 	 1. 	 0.1013766284 
449858 	 210	 0.0000300894 	 1. 	 1. 	 0.1013766284 
449858 	 205	 0.0000094699 	 1. 	 1. 	 0.0745919309 
449858 	 220	 0.0000094699 	 1. 	 1. 	 0.0745919309 
449858 	 211	 0.0000094699 	 1. 	 1. 	 0.0745919309 
449858 	 203	 0.0000094773 	 1. 	 1. 	 0.0574931783 
449858 	 209	 0.0000094773 	 1. 	 1. 	 0.0574931783 
449858 	 218	 0.0000094773 	 1. 	 1. 	 0.0574931783 
### 449859.MGPy8EG_A14N23LO_LV_1100_400_LLE12k 
449859 	 201	 0.0000056755 	 1. 	 1. 	 0.0641614324 
449859 	 206	 0.0000056755 	 1. 	 1. 	 0.0641614324 
449859 	 216	 0.0000056755 	 1. 	 1. 	 0.0641614324 
449859 	 204	 0.0000159270 	 1. 	 1. 	 0.1233995822 
449859 	 219	 0.0000159270 	 1. 	 1. 	 0.1233995822 
449859 	 210	 0.0000159270 	 1. 	 1. 	 0.1233995822 
449859 	 205	 0.0000049193 	 1. 	 1. 	 0.0925558512 
449859 	 220	 0.0000049193 	 1. 	 1. 	 0.0925558512 
449859 	 211	 0.0000049193 	 1. 	 1. 	 0.0925558512 
449859 	 203	 0.0000049819 	 1. 	 1. 	 0.0632693718 
449859 	 209	 0.0000049819 	 1. 	 1. 	 0.0632693718 
449859 	 218	 0.0000049819 	 1. 	 1. 	 0.0632693718 
### 449860.MGPy8EG_A14N23LO_LV_1100_800_LLE12k 
449860 	 201	 0.0000056755 	 1. 	 1. 	 0.0641614324 
449860 	 206	 0.0000056755 	 1. 	 1. 	 0.0641614324 
449860 	 216	 0.0000056755 	 1. 	 1. 	 0.0641614324 
449860 	 204	 0.0000159270 	 1. 	 1. 	 0.1233995822 
449860 	 219	 0.0000159270 	 1. 	 1. 	 0.1233995822 
449860 	 210	 0.0000159270 	 1. 	 1. 	 0.1233995822 
449860 	 205	 0.0000049193 	 1. 	 1. 	 0.0925558512 
449860 	 220	 0.0000049193 	 1. 	 1. 	 0.0925558512 
449860 	 211	 0.0000049193 	 1. 	 1. 	 0.0925558512 
449860 	 203	 0.0000049819 	 1. 	 1. 	 0.0632693718 
449860 	 209	 0.0000049819 	 1. 	 1. 	 0.0632693718 
449860 	 218	 0.0000049819 	 1. 	 1. 	 0.0632693718 
### 449861.MGPy8EG_A14N23LO_LV_1200_400_LLE12k 
449861 	 201	 0.0000030791 	 1. 	 1. 	 0.0920064203 
449861 	 206	 0.0000030791 	 1. 	 1. 	 0.0920064203 
449861 	 216	 0.0000030791 	 1. 	 1. 	 0.0920064203 
449861 	 204	 0.0000085946 	 1. 	 1. 	 0.1383050966 
449861 	 219	 0.0000085946 	 1. 	 1. 	 0.1383050966 
449861 	 210	 0.0000085946 	 1. 	 1. 	 0.1383050966 
449861 	 205	 0.0000026179 	 1. 	 1. 	 0.1451088326 
449861 	 220	 0.0000026179 	 1. 	 1. 	 0.1451088326 
449861 	 211	 0.0000026179 	 1. 	 1. 	 0.1451088326 
449861 	 203	 0.0000026781 	 1. 	 1. 	 0.0886554610 
449861 	 209	 0.0000026781 	 1. 	 1. 	 0.0886554610 
449861 	 218	 0.0000026781 	 1. 	 1. 	 0.0886554610 
### 449862.MGPy8EG_A14N23LO_LV_1200_800_LLE12k 
449862 	 201	 0.0000030791 	 1. 	 1. 	 0.0920064203 
449862 	 206	 0.0000030791 	 1. 	 1. 	 0.0920064203 
449862 	 216	 0.0000030791 	 1. 	 1. 	 0.0920064203 
449862 	 204	 0.0000085946 	 1. 	 1. 	 0.1383050966 
449862 	 219	 0.0000085946 	 1. 	 1. 	 0.1383050966 
449862 	 210	 0.0000085946 	 1. 	 1. 	 0.1383050966 
449862 	 205	 0.0000026179 	 1. 	 1. 	 0.1451088326 
449862 	 220	 0.0000026179 	 1. 	 1. 	 0.1451088326 
449862 	 211	 0.0000026179 	 1. 	 1. 	 0.1451088326 
449862 	 203	 0.0000026781 	 1. 	 1. 	 0.0886554610 
449862 	 209	 0.0000026781 	 1. 	 1. 	 0.0886554610 
449862 	 218	 0.0000026781 	 1. 	 1. 	 0.0886554610 
### 449863.MGPy8EG_A14N23LO_LV_1300_400_LLE12k 
449863 	 201	 0.0000017024 	 1. 	 1. 	 0.0924683606 
449863 	 206	 0.0000017024 	 1. 	 1. 	 0.0924683606 
449863 	 216	 0.0000017024 	 1. 	 1. 	 0.0924683606 
449863 	 204	 0.0000047063 	 1. 	 1. 	 0.1544925722 
449863 	 219	 0.0000047063 	 1. 	 1. 	 0.1544925722 
449863 	 210	 0.0000047063 	 1. 	 1. 	 0.1544925722 
449863 	 205	 0.0000014046 	 1. 	 1. 	 0.1565585389 
449863 	 220	 0.0000014046 	 1. 	 1. 	 0.1565585389 
449863 	 211	 0.0000014046 	 1. 	 1. 	 0.1565585389 
449863 	 203	 0.0000014794 	 1. 	 1. 	 0.0935029352 
449863 	 209	 0.0000014794 	 1. 	 1. 	 0.0935029352 
449863 	 218	 0.0000014794 	 1. 	 1. 	 0.0935029352 
### 449864.MGPy8EG_A14N23LO_LV_1300_800_LLE12k 
449864 	 201	 0.0000017024 	 1. 	 1. 	 0.0924683606 
449864 	 206	 0.0000017024 	 1. 	 1. 	 0.0924683606 
449864 	 216	 0.0000017024 	 1. 	 1. 	 0.0924683606 
449864 	 204	 0.0000047063 	 1. 	 1. 	 0.1544925722 
449864 	 219	 0.0000047063 	 1. 	 1. 	 0.1544925722 
449864 	 210	 0.0000047063 	 1. 	 1. 	 0.1544925722 
449864 	 205	 0.0000014046 	 1. 	 1. 	 0.1565585389 
449864 	 220	 0.0000014046 	 1. 	 1. 	 0.1565585389 
449864 	 211	 0.0000014046 	 1. 	 1. 	 0.1565585389 
449864 	 203	 0.0000014794 	 1. 	 1. 	 0.0935029352 
449864 	 209	 0.0000014794 	 1. 	 1. 	 0.0935029352 
449864 	 218	 0.0000014794 	 1. 	 1. 	 0.0935029352 
### 449865.MGPy8EG_A14N23LO_LV_800_300_LLEi33 
449865 	 201	 0.0000418944 	 1. 	 1. 	 0.0424717824 
449865 	 206	 0.0000418944 	 1. 	 1. 	 0.0424717824 
449865 	 216	 0.0000418944 	 1. 	 1. 	 0.0424717824 
449865 	 204	 0.0001158218 	 1. 	 1. 	 0.0718970332 
449865 	 219	 0.0001158218 	 1. 	 1. 	 0.0718970332 
449865 	 210	 0.0001158218 	 1. 	 1. 	 0.0718970332 
449865 	 205	 0.0000389021 	 1. 	 1. 	 0.0587687576 
449865 	 220	 0.0000389021 	 1. 	 1. 	 0.0587687576 
449865 	 211	 0.0000389021 	 1. 	 1. 	 0.0587687576 
449865 	 203	 0.0000376006 	 1. 	 1. 	 0.0462461834 
449865 	 209	 0.0000376006 	 1. 	 1. 	 0.0462461834 
449865 	 218	 0.0000376006 	 1. 	 1. 	 0.0462461834 
### 449866.MGPy8EG_A14N23LO_LV_800_600_LLEi33 
449866 	 201	 0.0000418944 	 1. 	 1. 	 0.0424717824 
449866 	 206	 0.0000418944 	 1. 	 1. 	 0.0424717824 
449866 	 216	 0.0000418944 	 1. 	 1. 	 0.0424717824 
449866 	 204	 0.0001158218 	 1. 	 1. 	 0.0718970332 
449866 	 219	 0.0001158218 	 1. 	 1. 	 0.0718970332 
449866 	 210	 0.0001158218 	 1. 	 1. 	 0.0718970332 
449866 	 205	 0.0000389021 	 1. 	 1. 	 0.0587687576 
449866 	 220	 0.0000389021 	 1. 	 1. 	 0.0587687576 
449866 	 211	 0.0000389021 	 1. 	 1. 	 0.0587687576 
449866 	 203	 0.0000376006 	 1. 	 1. 	 0.0462461834 
449866 	 209	 0.0000376006 	 1. 	 1. 	 0.0462461834 
449866 	 218	 0.0000376006 	 1. 	 1. 	 0.0462461834 
### 449867.MGPy8EG_A14N23LO_LV_900_300_LLEi33 
449867 	 201	 0.0000208231 	 1. 	 1. 	 0.0470004510 
449867 	 206	 0.0000208231 	 1. 	 1. 	 0.0470004510 
449867 	 216	 0.0000208231 	 1. 	 1. 	 0.0470004510 
449867 	 204	 0.0000584193 	 1. 	 1. 	 0.0906261875 
449867 	 219	 0.0000584193 	 1. 	 1. 	 0.0906261875 
449867 	 210	 0.0000584193 	 1. 	 1. 	 0.0906261875 
449867 	 205	 0.0000187982 	 1. 	 1. 	 0.0665540271 
449867 	 220	 0.0000187982 	 1. 	 1. 	 0.0665540271 
449867 	 211	 0.0000187982 	 1. 	 1. 	 0.0665540271 
449867 	 203	 0.0000185820 	 1. 	 1. 	 0.0512340450 
449867 	 209	 0.0000185820 	 1. 	 1. 	 0.0512340450 
449867 	 218	 0.0000185820 	 1. 	 1. 	 0.0512340450 
### 449868.MGPy8EG_A14N23LO_LV_900_700_LLEi33 
449868 	 201	 0.0000208231 	 1. 	 1. 	 0.0470004510 
449868 	 206	 0.0000208231 	 1. 	 1. 	 0.0470004510 
449868 	 216	 0.0000208231 	 1. 	 1. 	 0.0470004510 
449868 	 204	 0.0000584193 	 1. 	 1. 	 0.0906261875 
449868 	 219	 0.0000584193 	 1. 	 1. 	 0.0906261875 
449868 	 210	 0.0000584193 	 1. 	 1. 	 0.0906261875 
449868 	 205	 0.0000187982 	 1. 	 1. 	 0.0665540271 
449868 	 220	 0.0000187982 	 1. 	 1. 	 0.0665540271 
449868 	 211	 0.0000187982 	 1. 	 1. 	 0.0665540271 
449868 	 203	 0.0000185820 	 1. 	 1. 	 0.0512340450 
449868 	 209	 0.0000185820 	 1. 	 1. 	 0.0512340450 
449868 	 218	 0.0000185820 	 1. 	 1. 	 0.0512340450 
### 449869.MGPy8EG_A14N23LO_LV_1000_300_LLEi33 
449869 	 201	 0.0000107156 	 1. 	 1. 	 0.0491576147 
449869 	 206	 0.0000107156 	 1. 	 1. 	 0.0491576147 
449869 	 216	 0.0000107156 	 1. 	 1. 	 0.0491576147 
449869 	 204	 0.0000300894 	 1. 	 1. 	 0.1013766284 
449869 	 219	 0.0000300894 	 1. 	 1. 	 0.1013766284 
449869 	 210	 0.0000300894 	 1. 	 1. 	 0.1013766284 
449869 	 205	 0.0000094699 	 1. 	 1. 	 0.0745919309 
449869 	 220	 0.0000094699 	 1. 	 1. 	 0.0745919309 
449869 	 211	 0.0000094699 	 1. 	 1. 	 0.0745919309 
449869 	 203	 0.0000094773 	 1. 	 1. 	 0.0574931783 
449869 	 209	 0.0000094773 	 1. 	 1. 	 0.0574931783 
449869 	 218	 0.0000094773 	 1. 	 1. 	 0.0574931783 
### 449870.MGPy8EG_A14N23LO_LV_1000_800_LLEi33 
449870 	 201	 0.0000107156 	 1. 	 1. 	 0.0491576147 
449870 	 206	 0.0000107156 	 1. 	 1. 	 0.0491576147 
449870 	 216	 0.0000107156 	 1. 	 1. 	 0.0491576147 
449870 	 204	 0.0000300894 	 1. 	 1. 	 0.1013766284 
449870 	 219	 0.0000300894 	 1. 	 1. 	 0.1013766284 
449870 	 210	 0.0000300894 	 1. 	 1. 	 0.1013766284 
449870 	 205	 0.0000094699 	 1. 	 1. 	 0.0745919309 
449870 	 220	 0.0000094699 	 1. 	 1. 	 0.0745919309 
449870 	 211	 0.0000094699 	 1. 	 1. 	 0.0745919309 
449870 	 203	 0.0000094773 	 1. 	 1. 	 0.0574931783 
449870 	 209	 0.0000094773 	 1. 	 1. 	 0.0574931783 
449870 	 218	 0.0000094773 	 1. 	 1. 	 0.0574931783 
### 449871.MGPy8EG_A14N23LO_LV_1100_100_LLEi33 
449871 	 201	 0.0000056755 	 1. 	 1. 	 0.0641614324 
449871 	 206	 0.0000056755 	 1. 	 1. 	 0.0641614324 
449871 	 216	 0.0000056755 	 1. 	 1. 	 0.0641614324 
449871 	 204	 0.0000159270 	 1. 	 1. 	 0.1233995822 
449871 	 219	 0.0000159270 	 1. 	 1. 	 0.1233995822 
449871 	 210	 0.0000159270 	 1. 	 1. 	 0.1233995822 
449871 	 205	 0.0000049193 	 1. 	 1. 	 0.0925558512 
449871 	 220	 0.0000049193 	 1. 	 1. 	 0.0925558512 
449871 	 211	 0.0000049193 	 1. 	 1. 	 0.0925558512 
449871 	 203	 0.0000049819 	 1. 	 1. 	 0.0632693718 
449871 	 209	 0.0000049819 	 1. 	 1. 	 0.0632693718 
449871 	 218	 0.0000049819 	 1. 	 1. 	 0.0632693718 
### 449872.MGPy8EG_A14N23LO_LV_1100_300_LLEi33 
449872 	 201	 0.0000056755 	 1. 	 1. 	 0.0641614324 
449872 	 206	 0.0000056755 	 1. 	 1. 	 0.0641614324 
449872 	 216	 0.0000056755 	 1. 	 1. 	 0.0641614324 
449872 	 204	 0.0000159270 	 1. 	 1. 	 0.1233995822 
449872 	 219	 0.0000159270 	 1. 	 1. 	 0.1233995822 
449872 	 210	 0.0000159270 	 1. 	 1. 	 0.1233995822 
449872 	 205	 0.0000049193 	 1. 	 1. 	 0.0925558512 
449872 	 220	 0.0000049193 	 1. 	 1. 	 0.0925558512 
449872 	 211	 0.0000049193 	 1. 	 1. 	 0.0925558512 
449872 	 203	 0.0000049819 	 1. 	 1. 	 0.0632693718 
449872 	 209	 0.0000049819 	 1. 	 1. 	 0.0632693718 
449872 	 218	 0.0000049819 	 1. 	 1. 	 0.0632693718 
### 449873.MGPy8EG_A14N23LO_LV_1100_600_LLEi33 
449873 	 201	 0.0000056755 	 1. 	 1. 	 0.0641614324 
449873 	 206	 0.0000056755 	 1. 	 1. 	 0.0641614324 
449873 	 216	 0.0000056755 	 1. 	 1. 	 0.0641614324 
449873 	 204	 0.0000159270 	 1. 	 1. 	 0.1233995822 
449873 	 219	 0.0000159270 	 1. 	 1. 	 0.1233995822 
449873 	 210	 0.0000159270 	 1. 	 1. 	 0.1233995822 
449873 	 205	 0.0000049193 	 1. 	 1. 	 0.0925558512 
449873 	 220	 0.0000049193 	 1. 	 1. 	 0.0925558512 
449873 	 211	 0.0000049193 	 1. 	 1. 	 0.0925558512 
449873 	 203	 0.0000049819 	 1. 	 1. 	 0.0632693718 
449873 	 209	 0.0000049819 	 1. 	 1. 	 0.0632693718 
449873 	 218	 0.0000049819 	 1. 	 1. 	 0.0632693718 
### 449874.MGPy8EG_A14N23LO_LV_1100_800_LLEi33 
449874 	 201	 0.0000056755 	 1. 	 1. 	 0.0641614324 
449874 	 206	 0.0000056755 	 1. 	 1. 	 0.0641614324 
449874 	 216	 0.0000056755 	 1. 	 1. 	 0.0641614324 
449874 	 204	 0.0000159270 	 1. 	 1. 	 0.1233995822 
449874 	 219	 0.0000159270 	 1. 	 1. 	 0.1233995822 
449874 	 210	 0.0000159270 	 1. 	 1. 	 0.1233995822 
449874 	 205	 0.0000049193 	 1. 	 1. 	 0.0925558512 
449874 	 220	 0.0000049193 	 1. 	 1. 	 0.0925558512 
449874 	 211	 0.0000049193 	 1. 	 1. 	 0.0925558512 
449874 	 203	 0.0000049819 	 1. 	 1. 	 0.0632693718 
449874 	 209	 0.0000049819 	 1. 	 1. 	 0.0632693718 
449874 	 218	 0.0000049819 	 1. 	 1. 	 0.0632693718 
### 449875.MGPy8EG_A14N23LO_LV_1100_1090_LLEi33 
449875 	 201	 0.0000056755 	 1. 	 1. 	 0.0641614324 
449875 	 206	 0.0000056755 	 1. 	 1. 	 0.0641614324 
449875 	 216	 0.0000056755 	 1. 	 1. 	 0.0641614324 
449875 	 204	 0.0000159270 	 1. 	 1. 	 0.1233995822 
449875 	 219	 0.0000159270 	 1. 	 1. 	 0.1233995822 
449875 	 210	 0.0000159270 	 1. 	 1. 	 0.1233995822 
449875 	 205	 0.0000049193 	 1. 	 1. 	 0.0925558512 
449875 	 220	 0.0000049193 	 1. 	 1. 	 0.0925558512 
449875 	 211	 0.0000049193 	 1. 	 1. 	 0.0925558512 
449875 	 203	 0.0000049819 	 1. 	 1. 	 0.0632693718 
449875 	 209	 0.0000049819 	 1. 	 1. 	 0.0632693718 
449875 	 218	 0.0000049819 	 1. 	 1. 	 0.0632693718 