# C1C1 + C1N2z
# xsec in fb

1000   10 1.965378
1000   50 1.965378
1000   200     1.965378
1000   600     1.965378
1000   990     1.965378
1200   10      0.612401
1200   50      0.612401
1200   200     0.612401
1200   600     0.612401
1200   1190    0.612401
1500   10      0.1195238
1500   50      0.1195238
1500   200     0.1195238
1500   600     0.1195238
1500   1490    0.1195238
1600   10      0.0707145
1600   50      0.0707145
1600   200     0.0707145
1600   800     0.0707145
1600   1590    0.0707145
1700   10      0.0417031
1700   50      0.0417031
1700   200     0.0417031
1700   1000    0.0417031
1700   1690    0.0417031
