400	10	0.00151741
400	50	0.00151741
400	100	0.00151741
400	300	0.00151741
400	390	0.00151741
600	10	0.00022697
600	50	0.00022697
600	100	0.00022697
600	300	0.00022697
600	500	0.00022697
600	590	0.00022697
800	100	0.00004880
800	300	0.00004880
800	700	0.00004880
800	790	0.00004880
900	100	0.00002450
900	300	0.00002450
900	800	0.00002450
900	890	0.00002450
